{
  "name": "gemtext",
  "rules": {
    "document": {
      "type": "REPEAT",
      "content": {
        "type": "CHOICE",
        "members": [
          {
            "type": "SYMBOL",
            "name": "line"
          },
          {
            "type": "SYMBOL",
            "name": "preformatted_block"
          }
        ]
      }
    },
    "heading_1": {
      "type": "SEQ",
      "members": [
        {
          "type": "STRING",
          "value": "#"
        },
        {
          "type": "SYMBOL",
          "name": "text"
        }
      ]
    },
    "heading_2": {
      "type": "SEQ",
      "members": [
        {
          "type": "STRING",
          "value": "##"
        },
        {
          "type": "SYMBOL",
          "name": "text"
        }
      ]
    },
    "heading_3": {
      "type": "SEQ",
      "members": [
        {
          "type": "STRING",
          "value": "###"
        },
        {
          "type": "SYMBOL",
          "name": "text"
        }
      ]
    },
    "bullet_point": {
      "type": "SEQ",
      "members": [
        {
          "type": "SYMBOL",
          "name": "bullet_point_marker"
        },
        {
          "type": "SYMBOL",
          "name": "text"
        }
      ]
    },
    "bullet_point_marker": {
      "type": "STRING",
      "value": "*"
    },
    "link_marker": {
      "type": "STRING",
      "value": "=>"
    },
    "link": {
      "type": "SEQ",
      "members": [
        {
          "type": "SYMBOL",
          "name": "link_marker"
        },
        {
          "type": "CHOICE",
          "members": [
            {
              "type": "STRING",
              "value": " "
            },
            {
              "type": "BLANK"
            }
          ]
        },
        {
          "type": "SYMBOL",
          "name": "url"
        },
        {
          "type": "CHOICE",
          "members": [
            {
              "type": "SEQ",
              "members": [
                {
                  "type": "STRING",
                  "value": " "
                },
                {
                  "type": "FIELD",
                  "name": "link_label",
                  "content": {
                    "type": "SYMBOL",
                    "name": "text"
                  }
                }
              ]
            },
            {
              "type": "BLANK"
            }
          ]
        }
      ]
    },
    "url": {
      "type": "SYMBOL",
      "name": "_word"
    },
    "block_quote": {
      "type": "SEQ",
      "members": [
        {
          "type": "STRING",
          "value": ">"
        },
        {
          "type": "SYMBOL",
          "name": "text"
        }
      ]
    },
    "_word": {
      "type": "PATTERN",
      "value": "[^\\n\\r\\t ]+"
    },
    "text": {
      "type": "PREC_RIGHT",
      "value": 1,
      "content": {
        "type": "REPEAT1",
        "content": {
          "type": "SYMBOL",
          "name": "_word"
        }
      }
    },
    "preformatted_block": {
      "type": "SEQ",
      "members": [
        {
          "type": "STRING",
          "value": "```"
        },
        {
          "type": "CHOICE",
          "members": [
            {
              "type": "SYMBOL",
              "name": "alt_text"
            },
            {
              "type": "BLANK"
            }
          ]
        },
        {
          "type": "STRING",
          "value": "\n"
        },
        {
          "type": "REPEAT",
          "content": {
            "type": "CHOICE",
            "members": [
              {
                "type": "SYMBOL",
                "name": "text"
              },
              {
                "type": "STRING",
                "value": "\n"
              }
            ]
          }
        },
        {
          "type": "STRING",
          "value": "\n```"
        }
      ]
    },
    "alt_text": {
      "type": "SEQ",
      "members": [
        {
          "type": "CHOICE",
          "members": [
            {
              "type": "STRING",
              "value": " "
            },
            {
              "type": "BLANK"
            }
          ]
        },
        {
          "type": "SYMBOL",
          "name": "text"
        }
      ]
    },
    "line": {
      "type": "SEQ",
      "members": [
        {
          "type": "CHOICE",
          "members": [
            {
              "type": "SYMBOL",
              "name": "block_quote"
            },
            {
              "type": "SYMBOL",
              "name": "bullet_point"
            },
            {
              "type": "SYMBOL",
              "name": "heading_1"
            },
            {
              "type": "SYMBOL",
              "name": "heading_2"
            },
            {
              "type": "SYMBOL",
              "name": "heading_3"
            },
            {
              "type": "SYMBOL",
              "name": "link"
            },
            {
              "type": "SYMBOL",
              "name": "text"
            }
          ]
        },
        {
          "type": "STRING",
          "value": "\n"
        }
      ]
    }
  },
  "extras": [
    {
      "type": "PATTERN",
      "value": "\\s"
    }
  ],
  "conflicts": [],
  "precedences": [],
  "externals": [],
  "inline": [],
  "supertypes": []
}

